Company,Person,"Login Count","Page Views",Downloads
,"Craig Marks",0,0,0
,"Rebecca Shum",0,0,0
CBRE,"Antonio Marin-Bataller",8,0,2
CBRE,"Hamer Boot",5,0,6
TLGD,"Michael Avery",5,0,4
TLGD,"TLG TEST",0,0,0
TLGD,"tommy stevenson",0,0,0
